…
Finalmente, si se tuviera interés en analizar una variable dependiente
categórica, el código sería muy similar.

``` r
resultados_VD_cyl <- generar_descriptivos_VDcategorica(
  temp,
  var_VDcat = 'cyl',
  var_peso  = 'pesos',
  estrategia_valoresPerdidos = 'A',
  selecc_vars_auto = TRUE,
)
print(resultados_VD_cyl)
#> $Numericas
#> # A tibble: 24 × 18
#>    cyl   Variable     N Missing  Media Media_w Dif_categoriaReferencia   p_value
#>    <chr> <chr>    <int>   <int>  <dbl>   <dbl>                   <dbl>     <dbl>
#>  1 4     mpg         11       0  26.7    25.9                    NA    NA       
#>  2 6     mpg          7       0  19.7    19.9                    -5.95  3.79e- 4
#>  3 8     mpg         14       0  15.1    15.7                   -10.1   3.24e- 9
#>  4 4     disp        11       0 105.    109.                     NA    NA       
#>  5 6     disp         7       0 183.    181.                     71.7   5.54e- 3
#>  6 8     disp        14       0 353.    331.                    222.    3.66e-12
#>  7 4     hp          11       0  82.6    86.8                    NA    NA       
#>  8 6     hp           7       0 122.    131.                     44.3   4.27e- 2
#>  9 8     hp          14       0 209.    210.                    123.    6.17e- 8
#> 10 4     drat        11       0   4.07    4.06                   NA    NA       
#> # ℹ 14 more rows
#> # ℹ 10 more variables: Media_w_Min_95 <dbl>, Media_w_Max_95 <dbl>, Min <dbl>,
#> #   Q25 <dbl>, Mediana <dbl>, Q75 <dbl>, Max <dbl>, sd <dbl>, sd.w <dbl>,
#> #   hist <chr>
…
